[gd_scene load_steps=2 format=2]

[ext_resource path="res://scenes/levels/lvl_model.gd" type="Script" id=1]

[node name="lvl_model" type="Node2D"]
script = ExtResource( 1 )

[node name="Tilemaps" type="Node2D" parent="."]

[node name="Items" type="Node2D" parent="."]

[node name="Enemies" type="Node2D" parent="."]

[node name="Doors" type="Node2D" parent="."]
