[gd_scene load_steps=6 format=2]

[ext_resource path="res://actors/characters/King/King.tscn" type="PackedScene" id=1]
[ext_resource path="res://scenes/levels/map.tscn" type="PackedScene" id=2]
[ext_resource path="res://scenes/levels/lvl_model.tscn" type="PackedScene" id=3]
[ext_resource path="res://actors/door/Door.tscn" type="PackedScene" id=4]
[ext_resource path="res://actors/characters/Pig/Pig.tscn" type="PackedScene" id=5]

[node name="lvl_1" instance=ExtResource( 3 )]

[node name="TileMap" parent="Tilemaps" index="0" instance=ExtResource( 2 )]
tile_data = PoolIntArray( -1, 0, 0, -65536, 0, 1, -65535, 0, 1, -65534, 0, 1, -65533, 0, 1, -65532, 0, 1, -65531, 0, 1, -65530, 0, 1, -65529, 0, 1, -65528, 0, 1, -65527, 0, 1, -65526, 0, 1, -65525, 0, 1, -65524, 0, 1, -65523, 0, 1, -65522, 0, 1, -65521, 0, 1, -65520, 0, 1, -65519, 0, 1, -65518, 0, 1, -65517, 0, 1, -65516, 0, 1, -65515, 0, 1, -65514, 0, 1, -65513, 0, 1, -65512, 0, 1, -65511, 0, 1, -65510, 0, 1, -65509, 0, 1, -65508, 0, 1, -65507, 0, 1, -65506, 0, 1, -65505, 0, 1, -65504, 0, 2, 65535, 0, 65536, 0, 0, 65537, 1, 0, 65537, 2, 0, 65537, 3, 0, 65537, 4, 0, 65537, 5, 0, 65537, 6, 0, 65537, 7, 0, 65537, 8, 0, 65537, 9, 0, 65537, 10, 0, 65537, 11, 0, 65537, 12, 0, 65537, 13, 0, 65537, 14, 0, 65537, 15, 0, 65537, 16, 0, 65537, 17, 0, 65537, 18, 0, 65537, 19, 0, 65537, 20, 0, 65537, 21, 0, 65537, 22, 0, 65537, 23, 0, 65537, 24, 0, 65537, 25, 0, 65537, 26, 0, 65537, 27, 0, 65537, 28, 0, 65537, 29, 0, 65537, 30, 0, 65537, 31, 0, 65537, 32, 0, 65538, 131071, 0, 65536, 65536, 0, 65537, 65537, 0, 65537, 65538, 0, 65537, 65539, 0, 65537, 65540, 0, 65537, 65541, 0, 65537, 65542, 0, 65537, 65543, 0, 65537, 65544, 0, 65537, 65545, 0, 65537, 65546, 0, 65537, 65547, 0, 65537, 65548, 0, 65537, 65549, 0, 65537, 65550, 0, 65537, 65551, 0, 65537, 65552, 0, 65537, 65553, 0, 65537, 65554, 0, 65537, 65555, 0, 65537, 65556, 0, 65537, 65557, 0, 65537, 65558, 0, 65537, 65559, 0, 65537, 65560, 0, 65537, 65561, 0, 65537, 65562, 0, 65537, 65563, 0, 65537, 65564, 0, 65537, 65565, 0, 65537, 65566, 0, 65537, 65567, 0, 65537, 65568, 0, 65538, 196607, 0, 65536, 131072, 0, 65537, 131073, 0, 65537, 131074, 0, 65537, 131075, 0, 65537, 131076, 0, 65537, 131077, 0, 65537, 131078, 0, 65537, 131079, 0, 65537, 131080, 0, 65537, 131081, 0, 65537, 131082, 0, 65537, 131083, 0, 65537, 131084, 0, 65537, 131085, 0, 65537, 131086, 0, 65537, 131087, 0, 65537, 131088, 0, 65537, 131089, 0, 65537, 131090, 0, 65537, 131091, 0, 65537, 131092, 0, 65537, 131093, 0, 65537, 131094, 0, 65537, 131095, 0, 65537, 131096, 0, 65537, 131097, 0, 65537, 131098, 0, 65537, 131099, 0, 65537, 131100, 0, 65537, 131101, 0, 65537, 131102, 0, 65537, 131103, 0, 65537, 131104, 0, 65538, 262143, 0, 65536, 196608, 0, 65537, 196609, 0, 65537, 196610, 0, 65537, 196611, 0, 65537, 196612, 0, 6, 196613, 0, 131073, 196614, 0, 131073, 196615, 0, 131073, 196616, 0, 131073, 196617, 0, 131073, 196618, 0, 7, 196619, 0, 65537, 196620, 0, 65537, 196621, 0, 65537, 196622, 0, 65537, 196623, 0, 65537, 196624, 0, 65537, 196625, 0, 65537, 196626, 0, 65537, 196627, 0, 65537, 196628, 0, 65537, 196629, 0, 65537, 196630, 0, 65537, 196631, 0, 6, 196632, 0, 131073, 196633, 0, 131073, 196634, 0, 131073, 196635, 0, 131073, 196636, 0, 131073, 196637, 0, 7, 196638, 0, 65537, 196639, 0, 65537, 196640, 0, 65538, 327679, 0, 65536, 262144, 0, 65537, 262145, 0, 65537, 262146, 0, 65537, 262147, 0, 65537, 262148, 0, 65538, 262149, 1, 0, 262150, 1, 1, 262151, 1, 1, 262152, 1, 1, 262153, 1, 2, 262154, 0, 131072, 262155, 0, 131073, 262156, 0, 7, 262157, 0, 65537, 262158, 0, 65537, 262159, 0, 65537, 262160, 0, 65537, 262161, 0, 65537, 262162, 0, 65537, 262163, 0, 65537, 262164, 0, 65537, 262165, 0, 65537, 262166, 0, 6, 262167, 0, 131074, 262168, 1, 0, 262169, 1, 1, 262170, 1, 1, 262171, 1, 1, 262172, 1, 2, 262173, 0, 65536, 262174, 0, 65537, 262175, 0, 65537, 262176, 0, 65538, 393215, 0, 65536, 327680, 0, 65537, 327681, 0, 65537, 327682, 0, 65537, 327683, 0, 65537, 327684, 0, 65538, 327685, 1, 65536, 327686, 1, 65537, 327687, 1, 65537, 327688, 1, 65537, 327689, 1, 65542, 327690, 1, 1, 327691, 1, 2, 327692, 0, 131072, 327693, 0, 65545, 327694, 0, 131073, 327695, 0, 131073, 327696, 0, 131073, 327697, 0, 131073, 327698, 0, 131073, 327699, 0, 131073, 327700, 0, 7, 327701, 0, 65537, 327702, 0, 65538, 327703, 1, 0, 327704, 1, 65543, 327705, 1, 65537, 327706, 1, 65537, 327707, 1, 65537, 327708, 1, 65538, 327709, 0, 65536, 327710, 0, 65537, 327711, 0, 65537, 327712, 0, 65538, 458751, 0, 65536, 393216, 0, 65537, 393217, 0, 65537, 393218, 0, 65537, 393219, 0, 65537, 393220, 0, 65538, 393221, 1, 65536, 393222, 1, 65537, 393223, 1, 65537, 393224, 1, 65537, 393225, 1, 65537, 393226, 1, 65537, 393227, 1, 65542, 393228, 1, 2, 393229, 0, 131076, 393230, 1, 0, 393231, 1, 1, 393232, 1, 1, 393233, 1, 1, 393234, 1, 1, 393235, 1, 2, 393236, 0, 131072, 393237, 0, 131073, 393238, 0, 131074, 393239, 1, 65536, 393240, 1, 65537, 393241, 1, 65537, 393242, 1, 65537, 393243, 1, 65537, 393244, 1, 65538, 393245, 0, 65536, 393246, 0, 65537, 393247, 0, 65537, 393248, 0, 65538, 524287, 0, 65536, 458752, 0, 65537, 458753, 0, 65537, 458754, 0, 65537, 458755, 0, 65537, 458756, 0, 65538, 458757, 1, 65536, 458758, 1, 65537, 458759, 1, 65537, 458760, 1, 65537, 458761, 1, 65537, 458762, 1, 65537, 458763, 1, 65537, 458764, 1, 65542, 458765, 1, 1, 458766, 1, 65543, 458767, 1, 65537, 458768, 1, 65537, 458769, 1, 65537, 458770, 1, 65537, 458771, 1, 65542, 458772, 1, 1, 458773, 1, 1, 458774, 1, 1, 458775, 1, 65543, 458776, 1, 65537, 458777, 1, 65537, 458778, 1, 65537, 458779, 1, 65537, 458780, 1, 65538, 458781, 0, 65536, 458782, 0, 65537, 458783, 0, 65537, 458784, 0, 65538, 589823, 0, 65536, 524288, 0, 65537, 524289, 0, 65537, 524290, 0, 65537, 524291, 0, 6, 524292, 0, 131074, 524293, 1, 65536, 524294, 1, 65537, 524295, 1, 65537, 524296, 1, 65537, 524297, 1, 65537, 524298, 1, 65537, 524299, 1, 65537, 524300, 1, 65537, 524301, 1, 65537, 524302, 1, 65537, 524303, 1, 65537, 524304, 1, 65537, 524305, 1, 65537, 524306, 1, 65537, 524307, 1, 65537, 524308, 1, 65537, 524309, 1, 65537, 524310, 1, 65537, 524311, 1, 65537, 524312, 1, 65537, 524313, 1, 65537, 524314, 1, 65537, 524315, 1, 65537, 524316, 1, 65538, 524317, 0, 65536, 524318, 0, 65537, 524319, 0, 65537, 524320, 0, 65538, 655359, 0, 65536, 589824, 0, 65537, 589825, 0, 65537, 589826, 0, 6, 589827, 0, 131074, 589828, 1, 0, 589829, 1, 65543, 589830, 1, 65537, 589831, 1, 65537, 589832, 1, 65537, 589833, 1, 65537, 589834, 1, 65537, 589835, 1, 65537, 589836, 1, 65537, 589837, 1, 65537, 589838, 1, 65537, 589839, 1, 65537, 589840, 1, 65537, 589841, 1, 65537, 589842, 1, 65537, 589843, 1, 65537, 589844, 1, 65537, 589845, 1, 65537, 589846, 1, 65537, 589847, 1, 65537, 589848, 1, 65537, 589849, 1, 65537, 589850, 1, 65537, 589851, 1, 65537, 589852, 1, 65538, 589853, 0, 65536, 589854, 0, 65537, 589855, 0, 65537, 589856, 0, 65538, 720895, 0, 65536, 655360, 0, 65537, 655361, 0, 65537, 655362, 0, 65538, 655363, 1, 0, 655364, 1, 65543, 655365, 1, 65537, 655366, 1, 65537, 655367, 1, 65537, 655368, 1, 65537, 655369, 1, 65537, 655370, 1, 65537, 655371, 1, 65537, 655372, 1, 65537, 655373, 1, 65537, 655374, 1, 65537, 655375, 1, 65537, 655376, 1, 65537, 655377, 1, 65537, 655378, 1, 65537, 655379, 1, 65537, 655380, 1, 65537, 655381, 1, 65537, 655382, 1, 65537, 655383, 1, 65537, 655384, 1, 65537, 655385, 1, 65537, 655386, 1, 65537, 655387, 1, 65537, 655388, 1, 65538, 655389, 0, 65536, 655390, 0, 65537, 655391, 0, 65537, 655392, 0, 65538, 786431, 0, 65536, 720896, 0, 65537, 720897, 0, 65537, 720898, 0, 65538, 720899, 1, 65536, 720900, 1, 65537, 720901, 1, 65537, 720902, 1, 65537, 720903, 1, 65537, 720904, 1, 65537, 720905, 1, 65537, 720906, 1, 65537, 720907, 1, 65537, 720908, 1, 65537, 720909, 1, 6, 720910, 1, 131073, 720911, 1, 131073, 720912, 1, 131073, 720913, 1, 131073, 720914, 1, 131073, 720915, 1, 131073, 720916, 1, 131073, 720917, 1, 131073, 720918, 1, 131073, 720919, 1, 131073, 720920, 1, 131073, 720921, 1, 131073, 720922, 1, 131073, 720923, 1, 131073, 720924, 1, 131074, 720925, 0, 65536, 720926, 0, 65537, 720927, 0, 65537, 720928, 0, 65538, 851967, 0, 65536, 786432, 0, 65537, 786433, 0, 65537, 786434, 0, 65538, 786435, 1, 65536, 786436, 1, 65537, 786437, 1, 65537, 786438, 1, 65537, 786439, 1, 65537, 786440, 1, 65537, 786441, 1, 65537, 786442, 1, 65537, 786443, 1, 65537, 786444, 1, 65537, 786445, 1, 65538, 786446, 0, 262144, 786447, 0, 262145, 786448, 0, 262145, 786449, 0, 262145, 786450, 0, 262145, 786451, 0, 262145, 786452, 0, 262145, 786453, 0, 262145, 786454, 0, 262145, 786455, 0, 262145, 786456, 0, 262145, 786457, 0, 262145, 786458, 0, 262145, 786459, 0, 262145, 786460, 0, 262145, 786461, 0, 9, 786462, 0, 65537, 786463, 0, 65537, 786464, 0, 65538, 917503, 0, 65536, 851968, 0, 65537, 851969, 0, 65537, 851970, 0, 65538, 851971, 1, 131072, 851972, 1, 7, 851973, 1, 65537, 851974, 1, 65537, 851975, 1, 65537, 851976, 1, 65537, 851977, 1, 65537, 851978, 1, 65537, 851979, 1, 65537, 851980, 1, 65537, 851981, 1, 65542, 851982, 1, 1, 851983, 1, 1, 851984, 1, 1, 851985, 1, 1, 851986, 1, 1, 851987, 1, 1, 851988, 1, 1, 851989, 1, 1, 851990, 1, 1, 851991, 1, 1, 851992, 1, 1, 851993, 1, 1, 851994, 1, 1, 851995, 1, 1, 851996, 1, 2, 851997, 0, 65536, 851998, 0, 65537, 851999, 0, 65537, 852000, 0, 65538, 983039, 0, 65536, 917504, 0, 65537, 917505, 0, 65537, 917506, 0, 65542, 917507, 0, 2, 917508, 1, 131072, 917509, 1, 131073, 917510, 1, 131073, 917511, 1, 131073, 917512, 1, 131073, 917513, 1, 131073, 917514, 1, 131073, 917515, 1, 7, 917516, 1, 65537, 917517, 1, 65537, 917518, 1, 65537, 917519, 1, 65537, 917520, 1, 65537, 917521, 1, 65537, 917522, 1, 65537, 917523, 1, 65537, 917524, 1, 65537, 917525, 1, 65537, 917526, 1, 65537, 917527, 1, 65537, 917528, 1, 65537, 917529, 1, 65537, 917530, 1, 65537, 917531, 1, 6, 917532, 1, 131074, 917533, 0, 65536, 917534, 0, 65537, 917535, 0, 65537, 917536, 0, 65538, 1048575, 0, 65536, 983040, 0, 65537, 983041, 0, 65537, 983042, 0, 65537, 983043, 0, 65542, 983044, 0, 1, 983045, 0, 1, 983046, 0, 1, 983047, 0, 1, 983048, 0, 1, 983049, 0, 1, 983050, 0, 2, 983051, 1, 131072, 983052, 1, 7, 983053, 1, 65537, 983054, 1, 65537, 983055, 1, 65537, 983056, 1, 65537, 983057, 1, 65537, 983058, 1, 65537, 983059, 1, 65537, 983060, 1, 65537, 983061, 1, 65537, 983062, 1, 65537, 983063, 1, 65537, 983064, 1, 65537, 983065, 1, 65537, 983066, 1, 6, 983067, 1, 131074, 983068, 0, 0, 983069, 0, 65543, 983070, 0, 65537, 983071, 0, 65537, 983072, 0, 65538, 1114111, 0, 65536, 1048576, 0, 65537, 1048577, 0, 65537, 1048578, 0, 65537, 1048579, 0, 65537, 1048580, 0, 65537, 1048581, 0, 65537, 1048582, 0, 65537, 1048583, 0, 65537, 1048584, 0, 65537, 1048585, 0, 65537, 1048586, 0, 65542, 1048587, 0, 2, 1048588, 1, 65536, 1048589, 1, 65537, 1048590, 1, 65537, 1048591, 1, 65537, 1048592, 1, 65537, 1048593, 1, 65537, 1048594, 1, 65537, 1048595, 1, 65537, 1048596, 1, 6, 1048597, 1, 131073, 1048598, 1, 131073, 1048599, 1, 131073, 1048600, 1, 131073, 1048601, 1, 131073, 1048602, 1, 131074, 1048603, 0, 0, 1048604, 0, 65543, 1048605, 0, 65537, 1048606, 0, 65537, 1048607, 0, 65537, 1048608, 0, 65538, 1179647, 0, 65536, 1114112, 0, 65537, 1114113, 0, 65537, 1114114, 0, 65537, 1114115, 0, 65537, 1114116, 0, 65537, 1114117, 0, 65537, 1114118, 0, 65537, 1114119, 0, 65537, 1114120, 0, 65537, 1114121, 0, 65537, 1114122, 0, 65537, 1114123, 0, 65538, 1114124, 1, 131072, 1114125, 1, 131073, 1114126, 1, 131073, 1114127, 1, 131073, 1114128, 1, 131073, 1114129, 1, 131073, 1114130, 1, 131073, 1114131, 1, 131073, 1114132, 1, 131074, 1114133, 0, 0, 1114134, 0, 1, 1114135, 0, 1, 1114136, 0, 1, 1114137, 0, 1, 1114138, 0, 1, 1114139, 0, 65543, 1114140, 0, 65537, 1114141, 0, 65537, 1114142, 0, 65537, 1114143, 0, 65537, 1114144, 0, 65538, 1245183, 0, 65536, 1179648, 0, 65537, 1179649, 0, 65537, 1179650, 0, 65537, 1179651, 0, 65537, 1179652, 0, 65537, 1179653, 0, 65537, 1179654, 0, 65537, 1179655, 0, 65537, 1179656, 0, 65537, 1179657, 0, 65537, 1179658, 0, 65537, 1179659, 0, 65542, 1179660, 0, 1, 1179661, 0, 1, 1179662, 0, 1, 1179663, 0, 1, 1179664, 0, 1, 1179665, 0, 1, 1179666, 0, 1, 1179667, 0, 1, 1179668, 0, 1, 1179669, 0, 65543, 1179670, 0, 65537, 1179671, 0, 65537, 1179672, 0, 65537, 1179673, 0, 65537, 1179674, 0, 65537, 1179675, 0, 65537, 1179676, 0, 65537, 1179677, 0, 65537, 1179678, 0, 65537, 1179679, 0, 65537, 1179680, 0, 65538, 1310719, 0, 131072, 1245184, 0, 131073, 1245185, 0, 131073, 1245186, 0, 131073, 1245187, 0, 131073, 1245188, 0, 131073, 1245189, 0, 131073, 1245190, 0, 131073, 1245191, 0, 131073, 1245192, 0, 131073, 1245193, 0, 131073, 1245194, 0, 131073, 1245195, 0, 131073, 1245196, 0, 131073, 1245197, 0, 131073, 1245198, 0, 131073, 1245199, 0, 131073, 1245200, 0, 131073, 1245201, 0, 131073, 1245202, 0, 131073, 1245203, 0, 131073, 1245204, 0, 131073, 1245205, 0, 131073, 1245206, 0, 131073, 1245207, 0, 131073, 1245208, 0, 131073, 1245209, 0, 131073, 1245210, 0, 131073, 1245211, 0, 131073, 1245212, 0, 131073, 1245213, 0, 131073, 1245214, 0, 131073, 1245215, 0, 131073, 1245216, 0, 131074 )

[node name="Door" parent="Doors" index="0" instance=ExtResource( 4 )]
position = Vector2( 174, 451 )
next_level = "res://scenes/levels/level_2/lvl_2.tscn"

[node name="Door2" parent="Doors" index="1" instance=ExtResource( 4 )]
position = Vector2( 702, 515 )
next_level = "res://scenes/levels/level_2/lvl_2.tscn"

[node name="King" parent="." index="4" instance=ExtResource( 1 )]
position = Vector2( 300, 467 )

[node name="Pig" parent="." index="5" instance=ExtResource( 5 )]
position = Vector2( 654, 564 )
